#FIG 3.2  Produced by xfig version 3.2.7a
Portrait
Center
Metric
Letter
100.00
Single
-2
1200 2
1 3 0 1 0 6 51 -1 30 0.000 1 0.0000 3150 990 90 90 3150 990 3150 900
1 3 0 1 0 0 55 -1 20 0.000 1 0.0000 3195 1035 90 90 3195 1035 3285 1035
1 3 0 1 0 6 51 -1 30 0.000 1 0.0000 1710 1260 90 90 1710 1260 1800 1260
1 3 0 1 0 0 55 -1 20 0.000 1 0.0000 1755 1305 90 90 1755 1305 1845 1305
2 1 0 1 0 7 50 -1 -1 0.000 0 0 -1 1 0 2
	1 1 1.00 45.00 75.00
	 3150 900 3150 765
2 1 0 1 0 7 50 -1 -1 0.000 0 0 -1 1 0 2
	1 1 1.00 45.00 75.00
	 3150 1575 3150 1125
2 2 0 1 0 0 55 -1 20 0.000 0 0 -1 0 0 5
	 945 585 1845 585 1845 765 945 765 945 585
2 2 0 1 0 2 51 -1 34 0.000 0 0 -1 0 0 5
	 900 540 1800 540 1800 720 900 720 900 540
2 2 0 1 0 1 51 -1 34 0.000 0 0 -1 0 0 5
	 2700 540 3600 540 3600 720 2700 720 2700 540
2 2 0 1 0 0 55 -1 20 0.000 0 0 -1 0 0 5
	 2745 585 3645 585 3645 765 2745 765 2745 585
2 1 0 1 0 7 50 -1 -1 0.000 0 0 -1 0 0 2
	 3150 945 3150 1035
2 1 0 1 0 7 50 -1 -1 0.000 0 0 -1 0 0 2
	 3105 990 3195 990
2 2 0 1 0 19 51 -1 36 0.000 0 0 -1 0 0 5
	 2700 1530 3600 1530 3600 1710 2700 1710 2700 1530
2 2 0 1 0 0 55 -1 20 0.000 0 0 -1 0 0 5
	 2745 1575 3645 1575 3645 1755 2745 1755 2745 1575
2 1 0 1 0 7 50 -1 -1 0.000 0 0 -1 1 0 2
	1 1 1.00 45.00 75.00
	 1800 1260 1980 1260
2 1 0 1 0 7 50 -1 -1 0.000 0 0 -1 0 0 3
	 1678 1201 1753 1242 1671 1282
2 2 0 1 0 19 51 -1 36 0.000 0 0 -1 0 0 5
	 900 1530 1800 1530 1800 1710 900 1710 900 1530
2 2 0 1 0 0 55 -1 20 0.000 0 0 -1 0 0 5
	 945 1575 1845 1575 1845 1755 945 1755 945 1575
2 1 0 1 0 7 50 -1 -1 0.000 0 0 -1 0 0 2
	 1763 1269 1678 1307
3 0 0 1 0 7 50 -1 -1 0.000 0 1 0 5
	1 1 1.00 45.00 75.00
	 1350 1575 1350 1440 1350 1305 1440 1305 1620 1305
	 0.000 1.000 1.000 1.000 0.000
3 0 0 1 0 7 50 -1 -1 0.000 0 1 0 5
	1 1 1.00 45.00 75.00
	 1350 630 1350 1080 1350 1215 1485 1215 1620 1215
	 0.000 1.000 1.000 1.000 0.000
3 0 0 1 0 7 50 -1 -1 0.000 0 1 0 5
	1 1 1.00 45.00 75.00
	 1350 630 1350 855 1350 990 1485 990 3060 990
	 0.000 1.000 1.000 1.000 0.000
4 1 0 50 -1 16 6 0.0000 4 120 885 3150 495 Adresse physique\001
4 1 0 50 -1 16 6 0.0000 4 105 795 1350 495 Adresse logique\001
4 1 0 50 -1 16 6 0.0000 4 90 300 3150 1665 BASE\001
4 0 0 50 -1 17 7 0.0000 4 105 555 1980 1305 Exception !\001
4 1 0 50 -1 16 6 0.0000 4 90 180 1350 1665 LIM\001
